%YAML 1.1
%TAG !u! tag:unity3d.com,2011:
--- !u!1 &136186
GameObject:
  m_ObjectHideFlags: 0
  m_PrefabParentObject: {fileID: 0}
  m_PrefabInternal: {fileID: 100100000}
  serializedVersion: 4
  m_Component:
  - 4: {fileID: 469420}
  - 114: {fileID: 11442756}
  m_Layer: 0
  m_Name: SCRIPTS
  m_TagString: Untagged
  m_Icon: {fileID: 0}
  m_NavMeshLayer: 0
  m_StaticEditorFlags: 0
  m_IsActive: 1
--- !u!4 &469420
Transform:
  m_ObjectHideFlags: 1
  m_PrefabParentObject: {fileID: 0}
  m_PrefabInternal: {fileID: 100100000}
  m_GameObject: {fileID: 136186}
  m_LocalRotation: {x: 0, y: 0, z: 0, w: 1}
  m_LocalPosition: {x: 0, y: 0, z: 0}
  m_LocalScale: {x: 1, y: 1, z: 1}
  m_Children: []
  m_Father: {fileID: 0}
  m_RootOrder: 0
--- !u!114 &11442756
MonoBehaviour:
  m_ObjectHideFlags: 1
  m_PrefabParentObject: {fileID: 0}
  m_PrefabInternal: {fileID: 100100000}
  m_GameObject: {fileID: 136186}
  m_Enabled: 1
  m_EditorHideFlags: 0
  m_Script: {fileID: 11500000, guid: 0a2e3e91a622a1040b728374c11c72b7, type: 3}
  m_Name: 
  m_EditorClassIdentifier: 
  cam: {fileID: 2046994, guid: c6453f8e1f814744d8b94e5a6d1f9942, type: 2}
  spawnspots:
  - {fileID: 193922, guid: 31c59404c207d7140b1ae8820628f7ce, type: 2}
  - {fileID: 192046, guid: 169d0283b0a1a7749a2c0d6bae62ba46, type: 2}
  myPlayer: {fileID: 120366, guid: c6453f8e1f814744d8b94e5a6d1f9942, type: 2}
  teamID: 0
--- !u!1001 &100100000
Prefab:
  m_ObjectHideFlags: 1
  serializedVersion: 2
  m_Modification:
    m_TransformParent: {fileID: 0}
    m_Modifications: []
    m_RemovedComponents: []
  m_ParentPrefab: {fileID: 0}
  m_RootGameObject: {fileID: 136186}
  m_IsPrefabParent: 1
